<?xml version="1.0" encoding="UTF-8" standalone="no"?>
<!-- Created with Inkscape (http://www.inkscape.org/) -->

<svg
   xmlns:dc="http://purl.org/dc/elements/1.1/"
   xmlns:cc="http://creativecommons.org/ns#"
   xmlns:rdf="http://www.w3.org/1999/02/22-rdf-syntax-ns#"
   xmlns:svg="http://www.w3.org/2000/svg"
   xmlns="http://www.w3.org/2000/svg"
   xmlns:sodipodi="http://sodipodi.sourceforge.net/DTD/sodipodi-0.dtd"
   xmlns:inkscape="http://www.inkscape.org/namespaces/inkscape"
   width="210mm"
   height="297mm"
   viewBox="0 0 210 297"
   version="1.1"
   id="svg8"
   inkscape:version="0.92.4 (5da689c313, 2019-01-14)"
   sodipodi:docname="ring.svg">
  <defs
     id="defs2" />
  <sodipodi:namedview
     id="base"
     pagecolor="#ffffff"
     bordercolor="#666666"
     borderopacity="1.0"
     inkscape:pageopacity="0.0"
     inkscape:pageshadow="2"
     inkscape:zoom="2.7393125"
     inkscape:cx="348.2596"
     inkscape:cy="576.63522"
     inkscape:document-units="mm"
     inkscape:current-layer="layer1"
     showgrid="false"
     inkscape:window-width="1920"
     inkscape:window-height="1001"
     inkscape:window-x="1591"
     inkscape:window-y="-9"
     inkscape:window-maximized="1" />
  <metadata
     id="metadata5">
    <rdf:RDF>
      <cc:Work
         rdf:about="">
        <dc:format>image/svg+xml</dc:format>
        <dc:type
           rdf:resource="http://purl.org/dc/dcmitype/StillImage" />
        <dc:title></dc:title>
      </cc:Work>
    </rdf:RDF>
  </metadata>
  <g
     inkscape:label="Vrstva 1"
     inkscape:groupmode="layer"
     id="layer1">
    <path
       style="opacity:0.98999999;fill:#ffffff;fill-opacity:1;stroke:none;stroke-width:0.87665802;stroke-miterlimit:4;stroke-dasharray:none;stroke-opacity:1"
       d="M 396.84961,440.31445 A 120.94488,120.94488 0 0 0 275.90625,561.25977 120.94488,120.94488 0 0 0 396.84961,682.20508 120.94488,120.94488 0 0 0 517.79492,561.25977 120.94488,120.94488 0 0 0 396.84961,440.31445 Z m 0,18.89844 A 102.04724,102.04724 0 0 1 498.89844,561.25977 102.04724,102.04724 0 0 1 396.84961,663.30664 102.04724,102.04724 0 0 1 294.80273,561.25977 102.04724,102.04724 0 0 1 396.84961,459.21289 Z"
       transform="scale(0.26458333)"
       id="path10"
       inkscape:connector-curvature="0" />
  </g>
</svg>
