[gd_scene load_steps=3 format=2]

[ext_resource path="res://Resources/Visuals/Environment/Close-T/lights/wall_light.png" type="Texture" id=1]
[ext_resource path="res://Resources/Visuals/Common/Light/light_ball.png" type="Texture" id=2]

[node name="WallLight" type="Light2D"]
show_behind_parent = true
texture = ExtResource( 2 )

[node name="Sprite" type="Sprite" parent="."]
texture = ExtResource( 1 )
