[gd_scene load_steps=6 format=2]

[ext_resource path="res://Resources/Visuals/Misc/ring.svg" type="Texture" id=2]


[sub_resource type="Curve" id=1]
_data = [ Vector2( 0, 1 ), 0.0, 0.0, 0, 0, Vector2( 1, 0 ), 0.0, 0.0, 0, 0 ]

[sub_resource type="Gradient" id=2]
colors = PoolColorArray( 1, 1, 1, 0, 1, 1, 1, 1 )

[sub_resource type="Curve" id=3]
_data = [ Vector2( 0, 0 ), 0.0, 0.0, 0, 0, Vector2( 1, 1 ), 0.0, 0.0, 0, 0 ]

[sub_resource type="Gradient" id=4]
colors = PoolColorArray( 1, 1, 1, 1, 1, 1, 1, 0 )

[node name="MagneticHat" type="Node2D"]
position = Vector2( 0, -200 )
scale = Vector2( 2, 2 )
__meta__ = {
"_edit_group_": true
}

[node name="pull" type="CPUParticles2D" parent="."]
modulate = Color( 0, 0, 1, 1 )
emitting = false
amount = 3
lifetime = 1.2
texture = ExtResource( 2 )
gravity = Vector2( 0, 0 )
scale_amount_curve = SubResource( 1 )
color_ramp = SubResource( 2 )

[node name="push" type="CPUParticles2D" parent="."]
modulate = Color( 1, 0, 0, 1 )
emitting = false
amount = 3
lifetime = 1.2
texture = ExtResource( 2 )
direction = Vector2( 0, 0 )
spread = 0.0
gravity = Vector2( 0, 0 )
scale_amount_curve = SubResource( 3 )
color_ramp = SubResource( 4 )
