[gd_scene load_steps=7 format=2]

[ext_resource path="res://Resources/Fonts/NewTegomin-Regular.ttf" type="DynamicFontData" id=1]
[ext_resource path="res://Resources/UI/Transition/DeathScreenIcon.png" type="Texture" id=2]
[ext_resource path="res://Scripts/Singletons/GameOverScreen.gd" type="Script" id=3]

[sub_resource type="DynamicFont" id=1]
size = 44
font_data = ExtResource( 1 )

[sub_resource type="Animation" id=2]
resource_name = "FadeIn"
length = 3.5
tracks/0/type = "value"
tracks/0/path = NodePath("Control:visible")
tracks/0/interp = 1
tracks/0/loop_wrap = true
tracks/0/imported = false
tracks/0/enabled = true
tracks/0/keys = {
"times": PoolRealArray( 0 ),
"transitions": PoolRealArray( 1 ),
"update": 1,
"values": [ true ]
}
tracks/1/type = "value"
tracks/1/path = NodePath("Control/ColorRect:modulate")
tracks/1/interp = 1
tracks/1/loop_wrap = true
tracks/1/imported = false
tracks/1/enabled = true
tracks/1/keys = {
"times": PoolRealArray( 0, 0.4 ),
"transitions": PoolRealArray( 1, 1 ),
"update": 0,
"values": [ Color( 1, 1, 1, 0 ), Color( 1, 1, 1, 1 ) ]
}
tracks/2/type = "value"
tracks/2/path = NodePath("DeathHat:modulate")
tracks/2/interp = 1
tracks/2/loop_wrap = true
tracks/2/imported = false
tracks/2/enabled = true
tracks/2/keys = {
"times": PoolRealArray( 0.5, 0.9 ),
"transitions": PoolRealArray( 1, 1 ),
"update": 0,
"values": [ Color( 1, 1, 1, 0 ), Color( 1, 1, 1, 1 ) ]
}
tracks/3/type = "value"
tracks/3/path = NodePath("Control/SmartLabel:modulate")
tracks/3/interp = 1
tracks/3/loop_wrap = true
tracks/3/imported = false
tracks/3/enabled = true
tracks/3/keys = {
"times": PoolRealArray( 0.7, 1.2 ),
"transitions": PoolRealArray( 1, 1 ),
"update": 0,
"values": [ Color( 1, 1, 1, 0 ), Color( 1, 1, 1, 1 ) ]
}
tracks/4/type = "value"
tracks/4/path = NodePath("DeathHat:visible")
tracks/4/interp = 1
tracks/4/loop_wrap = true
tracks/4/imported = false
tracks/4/enabled = true
tracks/4/keys = {
"times": PoolRealArray( 0 ),
"transitions": PoolRealArray( 1 ),
"update": 1,
"values": [ true ]
}
tracks/5/type = "method"
tracks/5/path = NodePath(".")
tracks/5/interp = 1
tracks/5/loop_wrap = true
tracks/5/imported = false
tracks/5/enabled = true
tracks/5/keys = {
"times": PoolRealArray( 2.7, 3.3 ),
"transitions": PoolRealArray( 1, 1 ),
"values": [ {
"args": [  ],
"method": "reloadScene"
}, {
"args": [  ],
"method": "_fade_out"
} ]
}

[sub_resource type="Animation" id=3]
resource_name = "FadeOut"
tracks/0/type = "value"
tracks/0/path = NodePath("Control/SmartLabel:modulate")
tracks/0/interp = 1
tracks/0/loop_wrap = true
tracks/0/imported = false
tracks/0/enabled = true
tracks/0/keys = {
"times": PoolRealArray( 0, 0.3 ),
"transitions": PoolRealArray( 1, 1 ),
"update": 0,
"values": [ Color( 1, 1, 1, 1 ), Color( 1, 1, 1, 0 ) ]
}
tracks/1/type = "value"
tracks/1/path = NodePath("DeathHat:modulate")
tracks/1/interp = 1
tracks/1/loop_wrap = true
tracks/1/imported = false
tracks/1/enabled = true
tracks/1/keys = {
"times": PoolRealArray( 0.2, 0.4 ),
"transitions": PoolRealArray( 1, 1 ),
"update": 0,
"values": [ Color( 1, 1, 1, 1 ), Color( 1, 1, 1, 0 ) ]
}
tracks/2/type = "value"
tracks/2/path = NodePath("Control/ColorRect:modulate")
tracks/2/interp = 1
tracks/2/loop_wrap = true
tracks/2/imported = false
tracks/2/enabled = true
tracks/2/keys = {
"times": PoolRealArray( 0.4, 0.6 ),
"transitions": PoolRealArray( 1, 1 ),
"update": 0,
"values": [ Color( 1, 1, 1, 1 ), Color( 1, 1, 1, 0 ) ]
}
tracks/3/type = "value"
tracks/3/path = NodePath("Control:visible")
tracks/3/interp = 1
tracks/3/loop_wrap = true
tracks/3/imported = false
tracks/3/enabled = true
tracks/3/keys = {
"times": PoolRealArray( 0, 0.8 ),
"transitions": PoolRealArray( 1, 1 ),
"update": 1,
"values": [ true, false ]
}
tracks/4/type = "value"
tracks/4/path = NodePath("DeathHat:visible")
tracks/4/interp = 1
tracks/4/loop_wrap = true
tracks/4/imported = false
tracks/4/enabled = true
tracks/4/keys = {
"times": PoolRealArray( 0, 0.8 ),
"transitions": PoolRealArray( 1, 1 ),
"update": 1,
"values": [ true, false ]
}

[node name="GameOverScreen" type="CanvasLayer"]
script = ExtResource( 3 )

[node name="Control" type="Control" parent="."]
visible = false
anchor_right = 1.0
anchor_bottom = 1.0
margin_top = -1.0
margin_bottom = -1.0
mouse_filter = 1
__meta__ = {
"_edit_use_anchors_": false
}

[node name="ColorRect" type="ColorRect" parent="Control"]
modulate = Color( 1, 1, 1, 0 )
anchor_right = 1.0
anchor_bottom = 1.0
margin_left = -640.0
margin_top = -360.0
margin_right = -640.0
margin_bottom = -360.0
rect_scale = Vector2( 2, 2 )
mouse_filter = 1
color = Color( 0.0980392, 0.0980392, 0.0980392, 1 )
__meta__ = {
"_edit_use_anchors_": false
}

[node name="SmartLabel" type="Label" parent="Control"]
modulate = Color( 1, 1, 1, 0 )
anchor_left = 0.5
anchor_top = 0.5
anchor_right = 0.5
anchor_bottom = 0.5
margin_left = -621.0
margin_top = 87.0
margin_right = 621.0
margin_bottom = 349.0
mouse_filter = 1
custom_fonts/font = SubResource( 1 )
custom_colors/font_color = Color( 0.858824, 0.592157, 0.137255, 1 )
align = 1
valign = 1
autowrap = true
__meta__ = {
"_edit_use_anchors_": false
}

[node name="DeathHat" type="Sprite" parent="."]
visible = false
modulate = Color( 1, 1, 1, 0 )
position = Vector2( 640, 250 )
scale = Vector2( 0.4, 0.4 )
texture = ExtResource( 2 )

[node name="TransitionTween" type="Tween" parent="."]

[node name="FadePlayer" type="AnimationPlayer" parent="."]
playback_speed = 1.4
anims/FadeIn = SubResource( 2 )
anims/FadeOut = SubResource( 3 )
