[gd_scene load_steps=5 format=2]

[ext_resource path="res://Scripts/UI/Dialogues/Option.gd" type="Script" id=3]
[ext_resource path="res://Resources/UI/Dialogues/dialog_option_0.png" type="Texture" id=4]

[sub_resource type="DynamicFontData" id=1]
font_path = "res://Resources/Fonts/LoveYaLikeASister-Regular.ttf"

[sub_resource type="DynamicFont" id=2]
size = 20
use_mipmaps = true
use_filter = true
font_data = SubResource( 1 )

[node name="Option" type="Control"]
anchor_right = 1.0
anchor_bottom = 1.0
margin_right = -962.0
margin_bottom = -618.0
rect_min_size = Vector2( 318, 102 )
script = ExtResource( 3 )
__meta__ = {
"_edit_use_anchors_": false
}

[node name="Sprite" type="Sprite" parent="."]
position = Vector2( 159.75, 51.9 )
scale = Vector2( 0.3, 0.2 )
texture = ExtResource( 4 )

[node name="Label" type="Label" parent="."]
margin_left = 20.0
margin_top = 15.0
margin_right = 295.0
margin_bottom = 90.0
custom_fonts/font = SubResource( 2 )
custom_colors/font_color = Color( 0.858824, 0.592157, 0.137255, 1 )
text = "Insert dialogue option here
Sample text "
align = 1
valign = 1
autowrap = true
clip_text = true
__meta__ = {
"_edit_use_anchors_": false,
"_editor_description_": ""
}

[connection signal="gui_input" from="." to="." method="_on_Option_gui_input"]
[connection signal="mouse_entered" from="." to="." method="_on_Option_mouse_entered"]
